^C:\USERS\NATHAN\DESKTOP\RUNTIMECOMPILEDCPLUSPLUS-RUNTIMECOMPILEDCPLUSPLUS-683FE76\AURORA\RUNTIMEOBJECTSYSTEM\EXCEPTIONS.CPP
/c /I"C:\Users\Nathan\Desktop\RuntimeCompiledCPlusPlus-RuntimeCompiledCPlusPlus-683fe76\Aurora\\External\libRocket\Include" /Zi /nologo /W3 /WX- /Od /Oy- /D _UNICODE /D UNICODE /Gm- /EHa /RTC1 /MDd /GS /fp:precise /Zc:wchar_t /Zc:forScope /Fo"Debug\\" /Fd"Debug\vc100.pdb" /Gd /TP /analyze- /FC /errorReport:prompt C:\USERS\NATHAN\DESKTOP\RUNTIMECOMPILEDCPLUSPLUS-RUNTIMECOMPILEDCPLUSPLUS-683FE76\AURORA\RUNTIMEOBJECTSYSTEM\EXCEPTIONS.CPP
^C:\USERS\NATHAN\DESKTOP\RUNTIMECOMPILEDCPLUSPLUS-RUNTIMECOMPILEDCPLUSPLUS-683FE76\AURORA\RUNTIMEOBJECTSYSTEM\OBJECTFACTORYSYSTEM\OBJECTFACTORYSYSTEM.CPP
/c /I"C:\Users\Nathan\Desktop\RuntimeCompiledCPlusPlus-RuntimeCompiledCPlusPlus-683fe76\Aurora\\External\libRocket\Include" /Zi /nologo /W3 /WX- /Od /Oy- /D _UNICODE /D UNICODE /Gm- /EHa /RTC1 /MDd /GS /fp:precise /Zc:wchar_t /Zc:forScope /Fo"Debug\\" /Fd"Debug\vc100.pdb" /Gd /TP /analyze- /FC /errorReport:prompt C:\USERS\NATHAN\DESKTOP\RUNTIMECOMPILEDCPLUSPLUS-RUNTIMECOMPILEDCPLUSPLUS-683FE76\AURORA\RUNTIMEOBJECTSYSTEM\OBJECTFACTORYSYSTEM\OBJECTFACTORYSYSTEM.CPP
^C:\USERS\NATHAN\DESKTOP\RUNTIMECOMPILEDCPLUSPLUS-RUNTIMECOMPILEDCPLUSPLUS-683FE76\AURORA\RUNTIMEOBJECTSYSTEM\OBJECTINTERFACEPERMODULESOURCE.CPP
/c /I"C:\Users\Nathan\Desktop\RuntimeCompiledCPlusPlus-RuntimeCompiledCPlusPlus-683fe76\Aurora\\External\libRocket\Include" /Zi /nologo /W3 /WX- /Od /Oy- /D _UNICODE /D UNICODE /Gm- /EHa /RTC1 /MDd /GS /fp:precise /Zc:wchar_t /Zc:forScope /Fo"Debug\\" /Fd"Debug\vc100.pdb" /Gd /TP /analyze- /FC /errorReport:prompt C:\USERS\NATHAN\DESKTOP\RUNTIMECOMPILEDCPLUSPLUS-RUNTIMECOMPILEDCPLUSPLUS-683FE76\AURORA\RUNTIMEOBJECTSYSTEM\OBJECTINTERFACEPERMODULESOURCE.CPP
^C:\USERS\NATHAN\DESKTOP\RUNTIMECOMPILEDCPLUSPLUS-RUNTIMECOMPILEDCPLUSPLUS-683FE76\AURORA\RUNTIMEOBJECTSYSTEM\RUNTIMEOBJECTSYSTEM\RUNTIMEOBJECTSYSTEM.CPP
/c /I"C:\Users\Nathan\Desktop\RuntimeCompiledCPlusPlus-RuntimeCompiledCPlusPlus-683fe76\Aurora\\External\libRocket\Include" /Zi /nologo /W3 /WX- /Od /Oy- /D _UNICODE /D UNICODE /Gm- /EHa /RTC1 /MDd /GS /fp:precise /Zc:wchar_t /Zc:forScope /Fo"Debug\\" /Fd"Debug\vc100.pdb" /Gd /TP /analyze- /FC /errorReport:prompt C:\USERS\NATHAN\DESKTOP\RUNTIMECOMPILEDCPLUSPLUS-RUNTIMECOMPILEDCPLUSPLUS-683FE76\AURORA\RUNTIMEOBJECTSYSTEM\RUNTIMEOBJECTSYSTEM\RUNTIMEOBJECTSYSTEM.CPP
^C:\USERS\NATHAN\DESKTOP\RUNTIMECOMPILEDCPLUSPLUS-RUNTIMECOMPILEDCPLUSPLUS-683FE76\AURORA\RUNTIMEOBJECTSYSTEM\SIMPLESERIALIZER\SIMPLESERIALIZER.CPP
/c /I"C:\Users\Nathan\Desktop\RuntimeCompiledCPlusPlus-RuntimeCompiledCPlusPlus-683fe76\Aurora\\External\libRocket\Include" /Zi /nologo /W3 /WX- /Od /Oy- /D _UNICODE /D UNICODE /Gm- /EHa /RTC1 /MDd /GS /fp:precise /Zc:wchar_t /Zc:forScope /Fo"Debug\\" /Fd"Debug\vc100.pdb" /Gd /TP /analyze- /FC /errorReport:prompt C:\USERS\NATHAN\DESKTOP\RUNTIMECOMPILEDCPLUSPLUS-RUNTIMECOMPILEDCPLUSPLUS-683FE76\AURORA\RUNTIMEOBJECTSYSTEM\SIMPLESERIALIZER\SIMPLESERIALIZER.CPP
