^C:\USERS\DEMX\DOCUMENTS\VISUAL STUDIO 2010\PROJECTS\DEMXDX\SERVER\SERVER\DEBUG\ABILITIES.OBJ|C:\USERS\DEMX\DOCUMENTS\VISUAL STUDIO 2010\PROJECTS\DEMXDX\SERVER\SERVER\DEBUG\AGGRO.OBJ|C:\USERS\DEMX\DOCUMENTS\VISUAL STUDIO 2010\PROJECTS\DEMXDX\SERVER\SERVER\DEBUG\CLIENTCONTEXT.OBJ|C:\USERS\DEMX\DOCUMENTS\VISUAL STUDIO 2010\PROJECTS\DEMXDX\SERVER\SERVER\DEBUG\COLLISION.OBJ|C:\USERS\DEMX\DOCUMENTS\VISUAL STUDIO 2010\PROJECTS\DEMXDX\SERVER\SERVER\DEBUG\EXTRACTDATA.OBJ|C:\USERS\DEMX\DOCUMENTS\VISUAL STUDIO 2010\PROJECTS\DEMXDX\SERVER\SERVER\DEBUG\MATCHES.OBJ|C:\USERS\DEMX\DOCUMENTS\VISUAL STUDIO 2010\PROJECTS\DEMXDX\SERVER\SERVER\DEBUG\MYSQLCONNECT.OBJ|C:\USERS\DEMX\DOCUMENTS\VISUAL STUDIO 2010\PROJECTS\DEMXDX\SERVER\SERVER\DEBUG\SERVER.EXE.EMBED.MANIFEST.RES|C:\USERS\DEMX\DOCUMENTS\VISUAL STUDIO 2010\PROJECTS\DEMXDX\SERVER\SERVER\DEBUG\SERVER.OBJ|C:\USERS\DEMX\DOCUMENTS\VISUAL STUDIO 2010\PROJECTS\DEMXDX\SERVER\SERVER\DEBUG\SERVERBROADCAST.OBJ|C:\USERS\DEMX\DOCUMENTS\VISUAL STUDIO 2010\PROJECTS\DEMXDX\SERVER\SERVER\DEBUG\SERVERCLIENTCONTEXT.OBJ|C:\USERS\DEMX\DOCUMENTS\VISUAL STUDIO 2010\PROJECTS\DEMXDX\SERVER\SERVER\DEBUG\SERVERGAMELOOP.OBJ|C:\USERS\DEMX\DOCUMENTS\VISUAL STUDIO 2010\PROJECTS\DEMXDX\SERVER\SERVER\DEBUG\SERVERINIT.OBJ|C:\USERS\DEMX\DOCUMENTS\VISUAL STUDIO 2010\PROJECTS\DEMXDX\SERVER\SERVER\DEBUG\SERVERLOGIN.OBJ|C:\USERS\DEMX\DOCUMENTS\VISUAL STUDIO 2010\PROJECTS\DEMXDX\SERVER\SERVER\DEBUG\SERVERRECIEVEPORT.OBJ|C:\USERS\DEMX\DOCUMENTS\VISUAL STUDIO 2010\PROJECTS\DEMXDX\SERVER\SERVER\DEBUG\SERVERSENDPORT.OBJ|C:\USERS\DEMX\DOCUMENTS\VISUAL STUDIO 2010\PROJECTS\DEMXDX\SERVER\SERVER\DEBUG\SPRITES.OBJ|C:\USERS\DEMX\DOCUMENTS\VISUAL STUDIO 2010\PROJECTS\DEMXDX\SERVER\SERVER\DEBUG\STDAFX.OBJ|C:\USERS\DEMX\DOCUMENTS\VISUAL STUDIO 2010\PROJECTS\DEMXDX\SERVER\SERVER\DEBUG\TIMER.OBJ
C:\USERS\DEMX\DOCUMENTS\VISUAL STUDIO 2010\PROJECTS\DEMXDX\SERVER\DEBUG\SERVER.ILK
C:\USERS\DEMX\DOCUMENTS\VISUAL STUDIO 2010\PROJECTS\DEMXDX\SERVER\DEBUG\SERVER.EXE
C:\USERS\DEMX\DOCUMENTS\VISUAL STUDIO 2010\PROJECTS\DEMXDX\SERVER\SERVER\DEBUG\SERVER.EXE.INTERMEDIATE.MANIFEST
C:\USERS\DEMX\DOCUMENTS\VISUAL STUDIO 2010\PROJECTS\DEMXDX\SERVER\DEBUG\SERVER.PDB
