^C:\USERS\DEMX\DOCUMENTS\VISUAL STUDIO 2010\PROJECTS\DEMXDX\SERVER\SERVER\DEBUG\ABILITIES.OBJ|C:\USERS\DEMX\DOCUMENTS\VISUAL STUDIO 2010\PROJECTS\DEMXDX\SERVER\SERVER\DEBUG\AGGRO.OBJ|C:\USERS\DEMX\DOCUMENTS\VISUAL STUDIO 2010\PROJECTS\DEMXDX\SERVER\SERVER\DEBUG\CLIENTCONTEXT.OBJ|C:\USERS\DEMX\DOCUMENTS\VISUAL STUDIO 2010\PROJECTS\DEMXDX\SERVER\SERVER\DEBUG\COLLISION.OBJ|C:\USERS\DEMX\DOCUMENTS\VISUAL STUDIO 2010\PROJECTS\DEMXDX\SERVER\SERVER\DEBUG\EXTRACTDATA.OBJ|C:\USERS\DEMX\DOCUMENTS\VISUAL STUDIO 2010\PROJECTS\DEMXDX\SERVER\SERVER\DEBUG\MATCHES.OBJ|C:\USERS\DEMX\DOCUMENTS\VISUAL STUDIO 2010\PROJECTS\DEMXDX\SERVER\SERVER\DEBUG\MYSQLCONNECT.OBJ|C:\USERS\DEMX\DOCUMENTS\VISUAL STUDIO 2010\PROJECTS\DEMXDX\SERVER\SERVER\DEBUG\SERVER.EXE.EMBED.MANIFEST.RES|C:\USERS\DEMX\DOCUMENTS\VISUAL STUDIO 2010\PROJECTS\DEMXDX\SERVER\SERVER\DEBUG\SERVER.OBJ|C:\USERS\DEMX\DOCUMENTS\VISUAL STUDIO 2010\PROJECTS\DEMXDX\SERVER\SERVER\DEBUG\SERVERBROADCAST.OBJ|C:\USERS\DEMX\DOCUMENTS\VISUAL STUDIO 2010\PROJECTS\DEMXDX\SERVER\SERVER\DEBUG\SERVERCLIENTCONTEXT.OBJ|C:\USERS\DEMX\DOCUMENTS\VISUAL STUDIO 2010\PROJECTS\DEMXDX\SERVER\SERVER\DEBUG\SERVERGAMELOOP.OBJ|C:\USERS\DEMX\DOCUMENTS\VISUAL STUDIO 2010\PROJECTS\DEMXDX\SERVER\SERVER\DEBUG\SERVERINIT.OBJ|C:\USERS\DEMX\DOCUMENTS\VISUAL STUDIO 2010\PROJECTS\DEMXDX\SERVER\SERVER\DEBUG\SERVERLOGIN.OBJ|C:\USERS\DEMX\DOCUMENTS\VISUAL STUDIO 2010\PROJECTS\DEMXDX\SERVER\SERVER\DEBUG\SERVERRECIEVEPORT.OBJ|C:\USERS\DEMX\DOCUMENTS\VISUAL STUDIO 2010\PROJECTS\DEMXDX\SERVER\SERVER\DEBUG\SERVERSENDPORT.OBJ|C:\USERS\DEMX\DOCUMENTS\VISUAL STUDIO 2010\PROJECTS\DEMXDX\SERVER\SERVER\DEBUG\SPRITES.OBJ|C:\USERS\DEMX\DOCUMENTS\VISUAL STUDIO 2010\PROJECTS\DEMXDX\SERVER\SERVER\DEBUG\STDAFX.OBJ|C:\USERS\DEMX\DOCUMENTS\VISUAL STUDIO 2010\PROJECTS\DEMXDX\SERVER\SERVER\DEBUG\TIMER.OBJ
C:\PROGRAM FILES (X86)\MICROSOFT SDKS\WINDOWS\V7.0A\LIB\WS2_32.LIB
C:\USERS\DEMX\DOCUMENTS\VISUAL STUDIO 2010\PROJECTS\DEMXDX\SERVER\SERVER\EXTERNAL\MYSQLCONN\LIB\MYSQLCPPCONN.LIB
C:\PROGRAM FILES (X86)\MICROSOFT SDKS\WINDOWS\V7.0A\LIB\KERNEL32.LIB
C:\PROGRAM FILES (X86)\MICROSOFT SDKS\WINDOWS\V7.0A\LIB\USER32.LIB
C:\PROGRAM FILES (X86)\MICROSOFT SDKS\WINDOWS\V7.0A\LIB\GDI32.LIB
C:\PROGRAM FILES (X86)\MICROSOFT SDKS\WINDOWS\V7.0A\LIB\WINSPOOL.LIB
C:\PROGRAM FILES (X86)\MICROSOFT SDKS\WINDOWS\V7.0A\LIB\COMDLG32.LIB
C:\PROGRAM FILES (X86)\MICROSOFT SDKS\WINDOWS\V7.0A\LIB\ADVAPI32.LIB
C:\PROGRAM FILES (X86)\MICROSOFT SDKS\WINDOWS\V7.0A\LIB\SHELL32.LIB
C:\PROGRAM FILES (X86)\MICROSOFT SDKS\WINDOWS\V7.0A\LIB\OLE32.LIB
C:\PROGRAM FILES (X86)\MICROSOFT SDKS\WINDOWS\V7.0A\LIB\OLEAUT32.LIB
C:\PROGRAM FILES (X86)\MICROSOFT SDKS\WINDOWS\V7.0A\LIB\UUID.LIB
C:\PROGRAM FILES (X86)\MICROSOFT SDKS\WINDOWS\V7.0A\LIB\ODBC32.LIB
C:\PROGRAM FILES (X86)\MICROSOFT SDKS\WINDOWS\V7.0A\LIB\ODBCCP32.LIB
C:\USERS\DEMX\DOCUMENTS\VISUAL STUDIO 2010\PROJECTS\DEMXDX\SERVER\SERVER\DEBUG\SERVER.EXE.EMBED.MANIFEST.RES
C:\USERS\DEMX\DOCUMENTS\VISUAL STUDIO 2010\PROJECTS\DEMXDX\SERVER\SERVER\DEBUG\ABILITIES.OBJ
C:\USERS\DEMX\DOCUMENTS\VISUAL STUDIO 2010\PROJECTS\DEMXDX\SERVER\SERVER\DEBUG\AGGRO.OBJ
C:\USERS\DEMX\DOCUMENTS\VISUAL STUDIO 2010\PROJECTS\DEMXDX\SERVER\SERVER\DEBUG\CLIENTCONTEXT.OBJ
C:\USERS\DEMX\DOCUMENTS\VISUAL STUDIO 2010\PROJECTS\DEMXDX\SERVER\SERVER\DEBUG\COLLISION.OBJ
C:\USERS\DEMX\DOCUMENTS\VISUAL STUDIO 2010\PROJECTS\DEMXDX\SERVER\SERVER\DEBUG\EXTRACTDATA.OBJ
C:\USERS\DEMX\DOCUMENTS\VISUAL STUDIO 2010\PROJECTS\DEMXDX\SERVER\SERVER\DEBUG\MATCHES.OBJ
C:\USERS\DEMX\DOCUMENTS\VISUAL STUDIO 2010\PROJECTS\DEMXDX\SERVER\SERVER\DEBUG\MYSQLCONNECT.OBJ
C:\USERS\DEMX\DOCUMENTS\VISUAL STUDIO 2010\PROJECTS\DEMXDX\SERVER\SERVER\DEBUG\SERVER.OBJ
C:\USERS\DEMX\DOCUMENTS\VISUAL STUDIO 2010\PROJECTS\DEMXDX\SERVER\SERVER\DEBUG\SERVERBROADCAST.OBJ
C:\USERS\DEMX\DOCUMENTS\VISUAL STUDIO 2010\PROJECTS\DEMXDX\SERVER\SERVER\DEBUG\SERVERCLIENTCONTEXT.OBJ
C:\USERS\DEMX\DOCUMENTS\VISUAL STUDIO 2010\PROJECTS\DEMXDX\SERVER\SERVER\DEBUG\SERVERGAMELOOP.OBJ
C:\USERS\DEMX\DOCUMENTS\VISUAL STUDIO 2010\PROJECTS\DEMXDX\SERVER\SERVER\DEBUG\SERVERINIT.OBJ
C:\USERS\DEMX\DOCUMENTS\VISUAL STUDIO 2010\PROJECTS\DEMXDX\SERVER\SERVER\DEBUG\SERVERLOGIN.OBJ
C:\USERS\DEMX\DOCUMENTS\VISUAL STUDIO 2010\PROJECTS\DEMXDX\SERVER\SERVER\DEBUG\SERVERRECIEVEPORT.OBJ
C:\USERS\DEMX\DOCUMENTS\VISUAL STUDIO 2010\PROJECTS\DEMXDX\SERVER\SERVER\DEBUG\SERVERSENDPORT.OBJ
C:\USERS\DEMX\DOCUMENTS\VISUAL STUDIO 2010\PROJECTS\DEMXDX\SERVER\SERVER\DEBUG\SPRITES.OBJ
C:\USERS\DEMX\DOCUMENTS\VISUAL STUDIO 2010\PROJECTS\DEMXDX\SERVER\SERVER\DEBUG\STDAFX.OBJ
C:\USERS\DEMX\DOCUMENTS\VISUAL STUDIO 2010\PROJECTS\DEMXDX\SERVER\SERVER\DEBUG\TIMER.OBJ
C:\WINDOWS\SYSTEM32\TZRES.DLL
C:\USERS\DEMX\DOCUMENTS\VISUAL STUDIO 2010\PROJECTS\DEMXDX\SERVER\DEBUG\SERVER.ILK
C:\USERS\DEMX\DOCUMENTS\VISUAL STUDIO 2010\PROJECTS\DEMXDX\SERVER\DEBUG\SERVER.EXE
C:\USERS\DEMX\DOCUMENTS\VISUAL STUDIO 2010\PROJECTS\DEMXDX\SERVER\DEBUG\SERVER.PDB
C:\WINDOWS\GLOBALIZATION\SORTING\SORTDEFAULT.NLS
C:\PROGRAM FILES (X86)\MICROSOFT VISUAL STUDIO 10.0\VC\LIB\MSVCPRTD.LIB
C:\PROGRAM FILES (X86)\MICROSOFT VISUAL STUDIO 10.0\VC\LIB\MSVCRTD.LIB
C:\PROGRAM FILES (X86)\MICROSOFT VISUAL STUDIO 10.0\VC\LIB\OLDNAMES.LIB
